{
  "project_info": {
    "project_number": "75501003893",
    "firebase_url": "https://tom-giong.firebaseio.com",
    "project_id": "tom-giong",
    "storage_bucket": "tom-giong.appspot.com"
  },
  "client": [
    {
      "client_info": {
        "mobilesdk_app_id": "1:75501003893:android:d217f2a4ce6b045f66c43c",
        "android_client_info": {
          "package_name": "mcom.app.tomgiong"
        }
      },
      "oauth_client": [
        {
          "client_id": "75501003893-ecnm6f4m7qjih8jg9v90ojqvvm4oq04c.apps.googleusercontent.com",
          "client_type": 1,
          "android_info": {
            "package_name": "mcom.app.tomgiong",
            "certificate_hash": "d472a31942363decdabbc88e5f6896bfa0db0536"
          }
        },
        {
          "client_id": "75501003893-etbmva803spmga04deiko1d7421e5k4o.apps.googleusercontent.com",
          "client_type": 3
        }
      ],
      "api_key": [
        {
          "current_key": "AIzaSyCyxd_4nlE6JEnZZteDto6PQgNRIYnE1iY"
        }
      ],
      "services": {
        "appinvite_service": {
          "other_platform_oauth_client": [
            {
              "client_id": "75501003893-etbmva803spmga04deiko1d7421e5k4o.apps.googleusercontent.com",
              "client_type": 3
            },
            {
              "client_id": "75501003893-i7b9a0n87cbtbneh2p6d68vm7vpba7d3.apps.googleusercontent.com",
              "client_type": 2,
              "ios_info": {
                "bundle_id": "mcom.module.login"
              }
            }
          ]
        }
      }
    },
    {
      "client_info": {
        "mobilesdk_app_id": "1:75501003893:android:bf53958215db1f8366c43c",
        "android_client_info": {
          "package_name": "mcom.app.booking"
        }
      },
      "oauth_client": [
        {
          "client_id": "75501003893-nd1ir6l8t77s48roouc93e9434pinhep.apps.googleusercontent.com",
          "client_type": 1,
          "android_info": {
            "package_name": "mcom.app.booking",
            "certificate_hash": "d472a31942363decdabbc88e5f6896bfa0db0536"
          }
        },
        {
          "client_id": "75501003893-etbmva803spmga04deiko1d7421e5k4o.apps.googleusercontent.com",
          "client_type": 3
        }
      ],
      "api_key": [
        {
          "current_key": "AIzaSyCyxd_4nlE6JEnZZteDto6PQgNRIYnE1iY"
        }
      ],
      "services": {
        "appinvite_service": {
          "other_platform_oauth_client": [
            {
              "client_id": "75501003893-etbmva803spmga04deiko1d7421e5k4o.apps.googleusercontent.com",
              "client_type": 3
            },
            {
              "client_id": "75501003893-i7b9a0n87cbtbneh2p6d68vm7vpba7d3.apps.googleusercontent.com",
              "client_type": 2,
              "ios_info": {
                "bundle_id": "mcom.module.login"
              }
            }
          ]
        }
      }
    }
  ],
  "configuration_version": "1"
}